number of redundant records,redundancy ratio (%)
678,13.56
702,14.04
711,14.22
703,14.06
702,14.04
684,13.68
675,13.5
667,13.34
671,13.42
676,13.52
676,13.52
680,13.6
672,13.44
675,13.5
681,13.62
681,13.62
656,13.12
650,13
659,13.18
663,13.26
653,13.06
659,13.18
648,12.96
660,13.2
660,13.2
664,13.28
689,13.78
704,14.08
703,14.06
720,14.4
705,14.1
718,14.36
734,14.68
738,14.76
742,14.84
742,14.84
732,14.64
736,14.72
751,15.02
760,15.2
761,15.22
740,14.8
752,15.04
754,15.08
753,15.06
767,15.34
770,15.4
764,15.28
777,15.54
794,15.88
795,15.9
787,15.74
798,15.96
810,16.2
809,16.18
807,16.14
817,16.34
818,16.36
835,16.7
840,16.8
846,16.92
838,16.76
836,16.72
824,16.48
819,16.38
825,16.5
821,16.42
807,16.14
795,15.9
780,15.6
773,15.46
765,15.3
762,15.24
746,14.92
742,14.84
730,14.6
724,14.48
704,14.08
707,14.14
708,14.16
715,14.3
695,13.9
684,13.68
679,13.58
680,13.6
680,13.6
684,13.68
676,13.52
668,13.36
667,13.34
668,13.36
678,13.56
666,13.32
655,13.1
646,12.92
637,12.74
627,12.54
615,12.3
604,12.08
591,11.82
595,11.9
601,12.02
600,12
595,11.9
608,12.16
596,11.92
587,11.74
596,11.92
593,11.86
588,11.76
596,11.92
617,12.34
636,12.72
629,12.58
632,12.64
650,13
648,12.96
648,12.96
646,12.92
650,13
662,13.24
666,13.32
670,13.4
663,13.26
660,13.2
641,12.82
653,13.06
656,13.12
654,13.08
644,12.88
634,12.68
639,12.78
639,12.78
645,12.9
658,13.16
656,13.12
655,13.1
662,13.24
657,13.14
667,13.34
681,13.62
681,13.62
692,13.84
693,13.86
702,14.04
712,14.24
720,14.4
722,14.44
723,14.46
723,14.46
705,14.1
697,13.94
692,13.84
690,13.8
679,13.58
684,13.68
705,14.1
706,14.12
708,14.16
707,14.14
708,14.16
699,13.98
686,13.72
700,14
691,13.82
697,13.94
717,14.34
727,14.54
721,14.42
721,14.42
722,14.44
738,14.76
731,14.62
741,14.82
738,14.76
744,14.88
727,14.54
715,14.3
725,14.5
716,14.32
727,14.54
730,14.6
744,14.88
743,14.86
734,14.68
732,14.64
732,14.64
729,14.58
741,14.82
719,14.38
706,14.12
698,13.96
702,14.04
710,14.2
693,13.86
694,13.88
691,13.82
700,14
694,13.88
691,13.82
707,14.14
721,14.42
718,14.36
717,14.34
717,14.34
709,14.18
679,13.58
667,13.34
641,12.82
635,12.7
628,12.56
616,12.32
617,12.34
608,12.16
616,12.32
582,11.64
597,11.94
610,12.2
602,12.04
592,11.84
575,11.5
574,11.48
588,11.76
602,12.04
629,12.58
642,12.84
643,12.86
667,13.34
651,13.02
660,13.2
652,13.04
660,13.2
648,12.96
657,13.14
667,13.34
674,13.48
671,13.42
681,13.62
691,13.82
700,14
710,14.2
737,14.74
729,14.58
721,14.42
723,14.46
724,14.48
732,14.64
722,14.44
720,14.4
703,14.06
691,13.82
683,13.66
690,13.8
696,13.92
704,14.08
731,14.62
760,15.2
770,15.4
786,15.72
786,15.72
814,16.28
854,17.08
860,17.2
862,17.24
858,17.16
864,17.28
845,16.9
836,16.72
840,16.8
852,17.04
848,16.96
855,17.1
838,16.76
820,16.4
784,15.68
794,15.88
821,16.42
808,16.16
816,16.32
827,16.54
856,17.12
854,17.08
844,16.88
827,16.54
829,16.58
823,16.46
815,16.3
802,16.04
788,15.76
792,15.84
792,15.84
783,15.66
799,15.98
817,16.34
832,16.64
833,16.66
838,16.76
839,16.78
835,16.7
838,16.76
830,16.6
842,16.84
836,16.72
829,16.58
844,16.88
826,16.52
809,16.18
812,16.24
803,16.06
796,15.92
775,15.5
762,15.24
752,15.04
750,15
752,15.04
743,14.86
763,15.26
763,15.26
767,15.34
755,15.1
760,15.2
748,14.96
748,14.96
750,15
760,15.2
740,14.8
724,14.48
743,14.86
757,15.14
748,14.96
723,14.46
722,14.44
719,14.38
723,14.46
733,14.66
740,14.8
762,15.24
776,15.52
780,15.6
771,15.42
769,15.38
763,15.26
757,15.14
746,14.92
739,14.78
731,14.62
716,14.32
728,14.56
740,14.8
755,15.1
759,15.18
757,15.14
752,15.04
751,15.02
728,14.56
737,14.74
734,14.68
719,14.38
740,14.8
737,14.74
734,14.68
746,14.92
762,15.24
772,15.44
784,15.68
780,15.6
768,15.36
774,15.48
775,15.5
795,15.9
801,16.02
793,15.86
795,15.9
794,15.88
802,16.04
791,15.82
796,15.92
792,15.84
782,15.64
768,15.36
766,15.32
766,15.32
770,15.4
771,15.42
789,15.78
799,15.98
783,15.66
782,15.64
793,15.86
797,15.94
795,15.9
811,16.22
835,16.7
830,16.6
829,16.58
820,16.4
821,16.42
813,16.26
810,16.2
797,15.94
797,15.94
793,15.86
792,15.84
816,16.32
843,16.86
840,16.8
870,17.4
889,17.78
897,17.94
906,18.12
893,17.86
914,18.28
895,17.9
881,17.62
896,17.92
894,17.88
906,18.12
897,17.94
896,17.92
886,17.72
875,17.5
872,17.44
885,17.7
888,17.76
899,17.98
900,18
895,17.9
865,17.3
882,17.64
889,17.78
879,17.58
890,17.8
878,17.56
875,17.5
859,17.18
856,17.12
869,17.38
863,17.26
855,17.1
861,17.22
854,17.08
830,16.6
808,16.16
808,16.16
814,16.28
826,16.52
836,16.72
849,16.98
847,16.94
847,16.94
857,17.14
867,17.34
872,17.44
875,17.5
862,17.24
855,17.1
820,16.4
786,15.72
784,15.68
788,15.76
787,15.74
774,15.48
786,15.72
793,15.86
791,15.82
828,16.56
828,16.56
832,16.64
837,16.74
841,16.82
852,17.04
843,16.86
846,16.92
846,16.92
821,16.42
827,16.54
819,16.38
829,16.58
816,16.32
817,16.34
813,16.26
825,16.5
794,15.88
812,16.24
810,16.2
813,16.26
823,16.46
836,16.72
844,16.88
872,17.44
865,17.3
868,17.36
855,17.1
863,17.26
860,17.2
854,17.08
863,17.26
859,17.18
862,17.24
867,17.34
876,17.52
885,17.7
886,17.72
876,17.52
859,17.18
869,17.38
887,17.74
904,18.08
914,18.28
918,18.36
894,17.88
889,17.78
876,17.52
877,17.54
863,17.26
818,16.36
812,16.24
808,16.16
795,15.9
811,16.22
816,16.32
816,16.32
823,16.46
844,16.88
862,17.24
863,17.26
874,17.48
870,17.4
864,17.28
866,17.32
875,17.5
875,17.5
887,17.74
887,17.74
878,17.56
886,17.72
879,17.58
865,17.3
845,16.9
818,16.36
853,17.06
859,17.18
865,17.3
864,17.28
865,17.3
871,17.42
855,17.1
863,17.26
852,17.04
846,16.92
831,16.62
828,16.56
818,16.36
826,16.52
827,16.54
837,16.74
835,16.7
810,16.2
807,16.14
792,15.84
801,16.02
797,15.94
792,15.84
789,15.78
793,15.86
793,15.86
796,15.92
812,16.24
851,17.02
866,17.32
858,17.16
857,17.14
872,17.44
850,17
833,16.66
832,16.64
835,16.7
850,17
848,16.96
846,16.92
834,16.68
828,16.56
824,16.48
813,16.26
815,16.3
814,16.28
802,16.04
812,16.24
811,16.22
802,16.04
775,15.5
771,15.42
782,15.64
775,15.5
770,15.4
766,15.32
769,15.38
766,15.32
784,15.68
786,15.72
768,15.36
767,15.34
771,15.42
762,15.24
761,15.22
771,15.42
757,15.14
753,15.06
757,15.14
768,15.36
765,15.3
767,15.34
764,15.28
775,15.5
776,15.52
778,15.56
772,15.44
768,15.36
755,15.1
734,14.68
727,14.54
721,14.42
695,13.9
702,14.04
713,14.26
722,14.44
707,14.14
708,14.16
730,14.6
746,14.92
743,14.86
744,14.88
738,14.76
735,14.7
732,14.64
742,14.84
751,15.02
752,15.04
752,15.04
760,15.2
778,15.56
785,15.7
769,15.38
778,15.56
772,15.44
802,16.04
813,16.26
819,16.38
842,16.84
843,16.86
853,17.06
870,17.4
873,17.46
871,17.42
861,17.22
852,17.04
854,17.08
853,17.06
839,16.78
845,16.9
858,17.16
863,17.26
859,17.18
847,16.94
840,16.8
847,16.94
855,17.1
840,16.8
841,16.82
844,16.88
841,16.82
834,16.68
832,16.64
833,16.66
828,16.56
821,16.42
838,16.76
829,16.58
789,15.78
775,15.5
808,16.16
802,16.04
805,16.1
825,16.5
827,16.54
824,16.48
825,16.5
827,16.54
821,16.42
820,16.4
834,16.68
856,17.12
882,17.64
877,17.54
880,17.6
853,17.06
858,17.16
850,17
817,16.34
813,16.26
802,16.04
788,15.76
789,15.78
783,15.66
789,15.78
802,16.04
814,16.28
819,16.38
824,16.48
799,15.98
790,15.8
807,16.14
809,16.18
828,16.56
843,16.86
834,16.68
837,16.74
829,16.58
804,16.08
803,16.06
803,16.06
823,16.46
820,16.4
821,16.42
813,16.26
819,16.38
798,15.96
814,16.28
822,16.44
826,16.52
785,15.7
780,15.6
775,15.5
764,15.28
742,14.84
737,14.74
726,14.52
721,14.42
725,14.5
729,14.58
700,14
686,13.72
651,13.02
657,13.14
666,13.32
661,13.22
656,13.12
654,13.08
666,13.32
681,13.62
698,13.96
694,13.88
693,13.86
705,14.1
713,14.26
698,13.96
698,13.96
688,13.76
692,13.84
692,13.84
690,13.8
674,13.48
669,13.38
657,13.14
661,13.22
666,13.32
656,13.12
660,13.2
664,13.28
658,13.16
655,13.1
652,13.04
663,13.26
663,13.26
650,13
657,13.14
659,13.18
667,13.34
661,13.22
659,13.18
661,13.22
674,13.48
679,13.58
665,13.3
678,13.56
681,13.62
683,13.66
689,13.78
690,13.8
695,13.9
707,14.14
731,14.62
732,14.64
734,14.68
726,14.52
711,14.22
711,14.22
705,14.1
695,13.9
683,13.66
672,13.44
678,13.56
677,13.54
669,13.38
694,13.88
701,14.02
683,13.66
696,13.92
696,13.92
703,14.06
725,14.5
721,14.42
719,14.38
693,13.86
708,14.16
698,13.96
708,14.16
720,14.4
719,14.38
724,14.48
728,14.56
726,14.52
728,14.56
727,14.54
735,14.7
737,14.74
741,14.82
715,14.3
724,14.48
740,14.8
739,14.78
733,14.66
728,14.56
736,14.72
734,14.68
738,14.76
734,14.68
738,14.76
722,14.44
709,14.18
698,13.96
681,13.62
684,13.68
704,14.08
706,14.12
701,14.02
711,14.22
716,14.32
709,14.18
715,14.3
699,13.98
693,13.86
680,13.6
668,13.36
645,12.9
640,12.8
642,12.84
640,12.8
627,12.54
625,12.5
607,12.14
619,12.38
617,12.34
616,12.32
605,12.1
604,12.08
610,12.2
621,12.42
618,12.36
617,12.34
609,12.18
603,12.06
623,12.46
632,12.64
629,12.58
652,13.04
662,13.24
673,13.46
669,13.38
657,13.14
656,13.12
663,13.26
666,13.32
658,13.16
658,13.16
676,13.52
663,13.26
658,13.16
658,13.16
658,13.16
659,13.18
686,13.72
710,14.2
715,14.3
739,14.78
759,15.18
755,15.1
753,15.06
756,15.12
766,15.32
795,15.9
817,16.34
847,16.94
866,17.32
903,18.06
916,18.32
932,18.64
928,18.56
946,18.92
976,19.52
983,19.66
991,19.82
994,19.88
983,19.66
975,19.5
990,19.8
961,19.22
945,18.9
956,19.12
953,19.06
958,19.16
981,19.62
964,19.28
951,19.02
946,18.92
922,18.44
920,18.4
909,18.18
909,18.18
935,18.7
947,18.94
938,18.76
933,18.66
923,18.46
913,18.26
918,18.36
937,18.74
934,18.68
937,18.74
938,18.76
935,18.7
916,18.32
891,17.82
876,17.52
861,17.22
848,16.96
851,17.02
850,17
867,17.34
847,16.94
849,16.98
828,16.56
805,16.1
799,15.98
783,15.66
764,15.28
763,15.26
767,15.34
759,15.18
763,15.26
779,15.58
799,15.98
814,16.28
852,17.04
876,17.52
893,17.86
902,18.04
913,18.26
917,18.34
938,18.76
953,19.06
938,18.76
942,18.84
972,19.44
995,19.9
1021,20.42
1029,20.58
1048,20.96
1070,21.4
1067,21.34
1077,21.54
1105,22.1
1145,22.9
1178,23.56
1189,23.78
1193,23.86
1208,24.16
1227,24.54
1224,24.48
1226,24.52
1236,24.72
1236,24.72
1261,25.22
1253,25.06
1274,25.48
1266,25.32
1253,25.06
1253,25.06
1241,24.82
1228,24.56
1239,24.78
1244,24.88
1240,24.8
1232,24.64
1230,24.6
1206,24.12
1200,24
1213,24.26
1198,23.96
1183,23.66
1171,23.42
1144,22.88
1126,22.52
1098,21.96
1083,21.66
1063,21.26
1062,21.24
1078,21.56
1089,21.78
1099,21.98
1097,21.94
1092,21.84
1096,21.92
1063,21.26
1065,21.3
1049,20.98
1044,20.88
1025,20.5
1013,20.26
993,19.86
1001,20.02
1007,20.14
1005,20.1
987,19.74
977,19.54
974,19.48
953,19.06
945,18.9
962,19.24
974,19.48
963,19.26
977,19.54
983,19.66
975,19.5
998,19.96
1044,20.88
1044,20.88
1049,20.98
1050,21
1048,20.96
1038,20.76
1039,20.78
1029,20.58
1054,21.08
1049,20.98
1046,20.92
1045,20.9
1026,20.52
1031,20.62
1020,20.4
1002,20.04
994,19.88
998,19.96
1017,20.34
1032,20.64
1047,20.94
1045,20.9
1015,20.3
996,19.92
975,19.5
963,19.26
969,19.38
972,19.44
962,19.24
949,18.98
932,18.64
927,18.54
933,18.66
932,18.64
945,18.9
918,18.36
865,17.3
864,17.28
859,17.18
886,17.72
867,17.34
853,17.06
855,17.1
838,16.76
829,16.58
821,16.42
826,16.52
834,16.68
831,16.62
806,16.12
777,15.54
783,15.66
780,15.6
761,15.22
778,15.56
775,15.5
765,15.3
749,14.98
731,14.62
734,14.68
745,14.9
753,15.06
763,15.26
749,14.98
755,15.1
749,14.98
743,14.86
728,14.56
718,14.36
702,14.04
707,14.14
704,14.08
712,14.24
706,14.12
711,14.22
713,14.26
709,14.18
710,14.2
707,14.14
696,13.92
696,13.92
687,13.74
681,13.62
687,13.74
670,13.4
669,13.38
669,13.38
668,13.36
660,13.2
629,12.58
633,12.66
642,12.84
664,13.28
670,13.4
670,13.4
662,13.24
639,12.78
621,12.42
616,12.32
627,12.54
617,12.34
609,12.18
619,12.38
620,12.4
602,12.04
605,12.1
624,12.48
656,13.12
683,13.66
701,14.02
723,14.46
720,14.4
742,14.84
748,14.96
764,15.28
782,15.64
802,16.04
810,16.2
827,16.54
863,17.26
876,17.52
897,17.94
908,18.16
932,18.64
942,18.84
974,19.48
991,19.82
993,19.86
1024,20.48
1041,20.82
1060,21.2
1069,21.38
1089,21.78
1083,21.66
1086,21.72
1075,21.5
1085,21.7
1083,21.66
1078,21.56
1096,21.92
1086,21.72
1076,21.52
1061,21.22
1056,21.12
1050,21
1058,21.16
1067,21.34
1064,21.28
1060,21.2
1042,20.84
1047,20.94
1046,20.92
1039,20.78
1039,20.78
1034,20.68
1037,20.74
1000,20
1011,20.22
983,19.66
981,19.62
974,19.48
959,19.18
948,18.96
949,18.98
940,18.8
939,18.78
916,18.32
899,17.98
889,17.78
847,16.94
826,16.52
791,15.82
770,15.4
748,14.96
727,14.54
707,14.14
682,13.64
673,13.46
654,13.08
638,12.76
616,12.32
608,12.16
583,11.66
585,11.7
609,12.18
627,12.54
627,12.54
631,12.62
619,12.38
606,12.12
600,12
601,12.02
617,12.34
626,12.52
635,12.7
632,12.64
656,13.12
670,13.4
681,13.62
707,14.14
719,14.38
720,14.4
741,14.82
745,14.9
762,15.24
763,15.26
770,15.4
756,15.12
753,15.06
739,14.78
719,14.38
736,14.72
738,14.76
716,14.32
725,14.5
712,14.24
717,14.34
716,14.32
713,14.26
712,14.24
711,14.22
721,14.42
718,14.36
714,14.28
714,14.28
707,14.14
723,14.46
737,14.74
746,14.92
750,15
773,15.46
784,15.68
781,15.62
763,15.26
737,14.74
723,14.46
729,14.58
731,14.62
750,15
760,15.2
776,15.52
787,15.74
794,15.88
786,15.72
774,15.48
761,15.22
745,14.9
746,14.92
750,15
766,15.32
759,15.18
743,14.86
726,14.52
714,14.28
726,14.52
711,14.22
713,14.26
714,14.28
705,14.1
714,14.28
711,14.22
675,13.5
668,13.36
663,13.26
647,12.94
645,12.9
642,12.84
635,12.7
653,13.06
673,13.46
670,13.4
646,12.92
646,12.92
649,12.98
641,12.82
635,12.7
628,12.56
610,12.2
596,11.92
599,11.98
576,11.52
570,11.4
577,11.54
588,11.76
603,12.06
608,12.16
601,12.02
597,11.94
575,11.5
571,11.42
550,11
552,11.04
544,10.88
537,10.74
528,10.56
533,10.66
508,10.16
484,9.68
439,8.78
417,8.34
407,8.14
405,8.1
403,8.06
401,8.02
374,7.48
361,7.22
350,7
339,6.78
338,6.76
325,6.5
322,6.44
328,6.56
326,6.52
328,6.56
332,6.64
326,6.52
322,6.44
326,6.52
308,6.16
293,5.86
293,5.86
297,5.94
305,6.1
296,5.92
299,5.98
303,6.06
293,5.86
295,5.9
286,5.72
278,5.56
286,5.72
278,5.56
279,5.58
269,5.38
257,5.14
251,5.02
244,4.88
242,4.84
235,4.7
238,4.76
236,4.72
228,4.56
231,4.62
244,4.88
233,4.66
239,4.78
236,4.72
245,4.9
248,4.96
255,5.1
258,5.16
268,5.36
284,5.68
295,5.9
296,5.92
299,5.98
295,5.9
298,5.96
303,6.06
300,6
305,6.1
306,6.12
301,6.02
302,6.04
299,5.98
297,5.94
292,5.84
286,5.72
292,5.84
286,5.72
284,5.68
279,5.58
272,5.44
284,5.68
285,5.7
287,5.74
289,5.78
282,5.64
278,5.56
273,5.46
263,5.26
265,5.3
256,5.12
258,5.16
258,5.16
264,5.28
258,5.16
254,5.08
251,5.02
244,4.88
238,4.76
235,4.7
228,4.56
223,4.46
215,4.3
199,3.98
201,4.02
197,3.94
193,3.86
189,3.78
182,3.64
176,3.52
174,3.48
172,3.44
168,3.36
172,3.44
167,3.34
167,3.34
164,3.28
156,3.12
150,3
139,2.78
139,2.78
138,2.76
134,2.68
132,2.64
128,2.56
121,2.42
127,2.54
132,2.64
128,2.56
137,2.74
135,2.7
129,2.58
127,2.54
125,2.5
123,2.46
123,2.46
125,2.5
121,2.42
115,2.3
113,2.26
113,2.26
112,2.24
110,2.2
106,2.12
102,2.04
100,2
98,1.96
102,2.04
100,2
98,1.96
96,1.92
100,2
100,2
101,2.02
107,2.14
130,2.6
149,2.98
163,3.26
161,3.22
161,3.22
161,3.22
159,3.18
159,3.18
159,3.18
149,2.98
149,2.98
151,3.02
147,2.94
150,3
150,3
133,2.66
129,2.58
129,2.58
131,2.62
131,2.62
136,2.72
122,2.44
105,2.1
105,2.1
96,1.92
94,1.88
94,1.88
94,1.88
98,1.96
101,2.02
101,2.02
99,1.98
103,2.06
103,2.06
107,2.14
109,2.18
109,2.18
107,2.14
109,2.18
125,2.5
126,2.52
128,2.56
124,2.48
124,2.48
122,2.44
126,2.52
122,2.44
122,2.44
122,2.44
116,2.32
99,1.98
69,1.38
65,1.3
64,1.28
64,1.28
64,1.28
66,1.32
66,1.32
74,1.48
87,1.74
93,1.86
102,2.04
124,2.48
148,2.96
174,3.48
198,3.96
213,4.26
235,4.7
